<svg xmlns="http://www.w3.org/2000/svg" xmlns:xlink="http://www.w3.org/1999/xlink" width="16.844" height="20.38" viewBox="0 0 16.844 20.38">
  <path id="apple-music" d="M789.405,1735.64a4.521,4.521,0,0,0,2.778,4.12,11.248,11.248,0,0,1-1.434,2.9c-0.863,1.24-1.757,2.47-3.167,2.5-1.387.02-1.832-.81-3.418-0.81s-2.079.78-3.391,0.83c-1.36.05-2.4-1.34-3.267-2.57-1.779-2.53-3.137-7.15-1.312-10.26a5.09,5.09,0,0,1,4.283-2.56c1.336-.02,2.6.89,3.415,0.89s2.352-1.1,3.963-.94a4.875,4.875,0,0,1,3.785,2.02A4.6,4.6,0,0,0,789.405,1735.64Zm-5.677-6.13a4.238,4.238,0,0,1,1.1-3.15,4.661,4.661,0,0,1,3.049-1.54,4.44,4.44,0,0,1-1.077,3.25A3.862,3.862,0,0,1,783.728,1729.51Z" transform="translate(-775.344 -1724.81)"/>
</svg>
