<svg xmlns="http://www.w3.org/2000/svg" width="18.38" height="13.984" viewBox="0 0 18.38 13.984">
  <path id="Mail" d="M2185,1893.222l-5.378-4.243v9.766Zm12.954-6.215h-18.269l9.127,7.2Zm-6.583,7.207-2.559,2.017-2.563-2.022-6.6,6.783h18.324Zm1.25-.983,5.382,5.527v-9.767Z" transform="translate(-2179.624 -1887.007)" />
</svg>
