<svg xmlns="http://www.w3.org/2000/svg" width="23.706" height="23.706" viewBox="0 0 23.706 23.706">
  <path id="_" data-name="×" d="M31.534,44.432l1.9-1.9-9.954-9.954,9.954-9.954-1.9-1.9L21.58,30.68l-9.888-9.954-1.965,1.9,9.954,9.954L9.727,42.533l1.965,1.9,9.888-9.954Z" transform="translate(-9.727 -20.726)" fill="#fff" fill-rule="evenodd"/>
</svg>
